{
    "usuarios":[
        {
            "id": 1,
            "primer_apellido": "Cifuentes",
            "segundo_apellido": "Castro",
            "nombre": "Irvin",
            "username": "icifuentes",
            "password": "e10adc3949ba59abbe56e057f20f883e"
        }, 
        {
            "id": 2,
            "primer_apellido": "Moreno",
            "segundo_apellido": "Bello",
            "nombre": "Ariel",
            "username": "amoreno",
            "password": "cc26f89075a0ab76a292ad093bb8b7dd"
        }
    ]
}